{"totalCount":"2",
"terms":[
{"term_code":"D","term_year":"2012","term_begin":"2012-08-21","term_end":"2012-12-20","instruction_begin":"2012-08-27","instruction_end":"2012-12-10","name":"Fall 2012","status":"current"},
{"term_code":"D","term_year":"2013","term_begin":"2013-08-22","term_end":"2013-12-20","instruction_begin":"2013-08-29","instruction_end":"2013-12-20","name":"Fall 2013","status":"future"},
{"term_code":"B","term_year":"2013","term_begin":"2013-01-15","term_end":"2013-05-17","instruction_begin":"2013-01-22","instruction_end":"2013-05-17","name":"Spring 2013","status":"upcoming"},
{"term_code":"B","term_year":"2015","term_begin":"2013-01-07","term_end":"2013-01-18","instruction_begin":"2013-01-07","instruction_end":"2013-01-18","name":"Spring 2015","status":"upcoming"}
]}
