{"properties-response":{"properties":{"item":[{"key":"capture.device.SCREEN.buffer.bytes","value":10485760},
{"key":"capture.device.names","value":"SCREEN,PRESENTER,MICROPHONE"},
{"key":"capture.device.timezone.offset","value":-420},
{"key":"capture.device.PRESENTER.buffer.bytes","value":10485760},
{"key":"capture.error.smtp.password","value":""},
{"key":"capture.confidence.debug","value":false},
{"key":"capture.config.remote.polling.interval","value":600},
{"key":"capture.agent.state.remote.endpoint.url","value":"http:\/\/testallinone.usask.ca:8080\/capture-admin\/agents"},
{"key":"capture.device.SCREEN.codec","value":"ffenc_mpeg2video"},
{"key":"capture.device.SCREEN.codec.bitrate","value":1024},
{"key":"capture.device.MICROPHONE.codec.container","value":"mpegtsmux"},
{"key":"capture.device.PRESENTER.outputfile","value":"camera_out.mpg"},
{"key":"capture.confidence.enable","value":false},
{"key":"capture.device.PRESENTER.flavor","value":"presenter\/source"},
{"key":"capture.ingest.retry.interval","value":300},
{"key":"capture.device.SCREEN.buffer.size","value":200},
{"key":"capture.schedule.event.drop","value":false},
{"key":"capture.device.MICROPHONE.codec","value":"twolame"},
{"key":"capture.device.PRESENTER.src","value":"\/home\/matterhorn\/.m2\/repository\/org\/opencastproject\/samples\/camera\/1.0\/camera-1.0.mpg"},
{"key":"capture.schedule.remote.polling.interval","value":5},
{"key":"capture.device.SCREEN.flavor","value":"presentation\/source"},
{"key":"capture.device.timezone","value":"America\/Regina"},
{"key":"org.opencastproject.server.url","value":"http:\/\/testallinone.usask.ca:8080"},
{"key":"capture.device.SCREEN.type","value":"FILE"},
{"key":"capture.device.MICROPHONE.buffer.time","value":1000000000},
{"key":"capture.error.emails","value":""},
{"key":"capture.device.SCREEN.src","value":"\/home\/matterhorn\/.m2\/repository\/org\/opencastproject\/samples\/screen\/1.0\/screen-1.0.mpg"},
{"key":"capture.device.MICROPHONE.src","value":"\/home\/matterhorn\/.m2\/repository\/org\/opencastproject\/samples\/audio\/1.0\/audio-1.0.mp3"},
{"key":"capture.error.messagebody","value":"\"Capture agent was not running, and was just started.\""},
{"key":"capture.device.PRESENTER.buffer.size","value":200},
{"key":"capture.device.PRESENTER.type","value":"FILE"},
{"key":"service.pid","value":"org.opencastproject.capture.impl.ConfigurationManager"},
{"key":"capture.recording.shutdown.timeout","value":60},
{"key":"capture.device.MICROPHONE.type","value":"FILE"},
{"key":"capture.device.SCREEN.outputfile","value":"screen_out.mpg"},
{"key":"capture.filesystem.cache.url","value":"\/opt\/matterhorn\/felix\/work\/opencast\/cache"},
{"key":"capture.recording.state.remote.endpoint.url","value":"http:\/\/testallinone.usask.ca:8080\/capture-admin\/recordings"},
{"key":"org.opencastproject.capture.core.url","value":"http:\/\/testallinone.usask.ca:8080"},
{"key":"capture.device.MICROPHONE.buffer.bytes","value":10485760},
{"key":"capture.cleaner.mindiskspace","value":536870912},
{"key":"capture.device.SCREEN.codec.container","value":"mpegtsmux"},
{"key":"capture.schedule.cache.url","value":"\/opt\/matterhorn\/felix\/work\/opencast\/cache\/schedule.ics"},
{"key":"capture.ingest.retry.limit","value":5},
{"key":"capture.cleaner.interval","value":3600},
{"key":"capture.device.MICROPHONE.buffer.size","value":200},
{"key":"capture.device.PRESENTER.codec.container","value":"mpegtsmux"},
{"key":"capture.agent.state.remote.polling.interval","value":10},
{"key":"capture.device.MICROPHONE.outputfile","value":"audio_out.mp3"},
{"key":"capture.filesystem.cache.capture.url","value":"\/opt\/matterhorn\/felix\/work\/opencast\/cache\/captures\/"},
{"key":"capture.error.subject","value":"\"%hostname capture agent started at %date\""},
{"key":"capture.error.smtp.user","value":""},
{"key":"capture.ingest.pause.time","value":3600},
{"key":"capture.cleaner.maxarchivaldays","value":30},
{"key":"capture.confidence.video.location","value":"\/opt\/matterhorn\/felix\/work\/opencast\/volatile\/"},
{"key":"capture.error.smtp","value":""},
{"key":"capture.schedule.remote.endpoint.url","value":"http:\/\/testallinone.usask.ca:8080\/recordings\/calendars"},
{"key":"capture.device.SCREEN.buffer.time","value":1000000000},
{"key":"capture.filesystem.volatile.url","value":"\/opt\/matterhorn\/felix\/work\/opencast\/volatile"},
{"key":"capture.device.MICROPHONE.flavor","value":"presentation\/source"},
{"key":"capture.device.PRESENTER.codec.bitrate","value":1024},
{"key":"capture.device.PRESENTER.codec","value":"ffenc_mpeg2video"},
{"key":"capture.config.cache.url","value":"\/opt\/matterhorn\/felix\/work\/opencast\/cache\/capture.properties"},
{"key":"capture.schedule.event.buffertime","value":1},
{"key":"capture.agent.name","value":"demo_capture_agent"},
{"key":"capture.device.MICROPHONE.codec.bitrate","value":192},
{"key":"capture.config.remote.endpoint.url","value":""},
{"key":"capture.agent.capabilities.remote.polling.interval","value":10},
{"key":"capture.device.PRESENTER.buffer.time","value":1000000000},
{"key":"capture.max.length","value":28800}]}}}